[
    {
        "skinId": 200301,
        "indexId": 2,
        "nameTextMapHash": 1504245738,
        "descTextMapHash": 3529954098,
        "itemId": 340001,
        "characterId": 10000003,
        "jsonName": "Avatar_Lady_Sword_QinCostumeSea",
        "LMFEKDEOONK": 9215865218573512220,
        "FIOHANGCCNF": 17992774763103845215,
        "FIDFIDLDEDE": 2693372009414780113,
        "MNALJOIJMMD": 16220654252350373708,
        "quality": 4,
        "frontIconName": "UI_AvatarIcon_QinCostumeSea",
        "sideIconName": "UI_AvatarIcon_Side_QinCostumeSea",
        "JPOCFCHFPAN": 7856783315815955830
    },
    {
        "skinId": 201401,
        "indexId": 1,
        "nameTextMapHash": 4121525482,
        "descTextMapHash": 2644173682,
        "itemId": 340000,
        "characterId": 10000014,
        "jsonName": "Avatar_Girl_Catalyst_BarbaraCostumeSummertime",
        "LMFEKDEOONK": 10565960914446858292,
        "FIOHANGCCNF": 10341761028724614104,
        "FIDFIDLDEDE": 5183081712927355219,
        "MNALJOIJMMD": 7590386921274555252,
        "quality": 4,
        "frontIconName": "UI_AvatarIcon_BarbaraCostumeSummertime",
        "sideIconName": "UI_AvatarIcon_Side_BarbaraCostumeSummertime",
        "JPOCFCHFPAN": 16049450277489157369
    },
    {
        "skinId": 202701,
        "indexId": 1,
        "nameTextMapHash": 2572106930,
        "descTextMapHash": 720597146,
        "itemId": 340002,
        "characterId": 10000027,
        "jsonName": "Avatar_Lady_Catalyst_NingguangCostumeFloral",
        "LMFEKDEOONK": 15863689246053601958,
        "FIOHANGCCNF": 11681843191975356725,
        "FIDFIDLDEDE": 9773804280703925870,
        "MNALJOIJMMD": 1433662792352814140,
        "quality": 4,
        "frontIconName": "UI_AvatarIcon_NingguangCostumeFloral",
        "sideIconName": "UI_AvatarIcon_Side_NingguangCostumeFloral",
        "JPOCFCHFPAN": 13693364619168872694
    },
    {
        "skinId": 204201,
        "indexId": 1,
        "nameTextMapHash": 1613857666,
        "descTextMapHash": 1532026282,
        "itemId": 340003,
        "characterId": 10000042,
        "jsonName": "Avatar_Girl_Sword_KeqingCostumeFeather",
        "LMFEKDEOONK": 10364379182659254215,
        "FIOHANGCCNF": 6372458023003575072,
        "FIDFIDLDEDE": 12660355485795349718,
        "MNALJOIJMMD": 11708378725870789733,
        "quality": 4,
        "frontIconName": "UI_AvatarIcon_KeqingCostumeFeather",
        "sideIconName": "UI_AvatarIcon_Side_KeqingCostumeFeather",
        "JPOCFCHFPAN": 8264683658462126315
    },
    {
        "skinId": 200302,
        "indexId": 1,
        "nameTextMapHash": 2691230306,
        "descTextMapHash": 1553444314,
        "itemId": 340006,
        "characterId": 10000003,
        "jsonName": "Avatar_Lady_Sword_QinCostumeWic",
        "LMFEKDEOONK": 11789304378759268432,
        "FIOHANGCCNF": 2508262379750057037,
        "FIDFIDLDEDE": 8899383397730055880,
        "MNALJOIJMMD": 6257448215821889913,
        "DMAFAJNKPME": true,
        "quality": 4,
        "hide": true,
        "frontIconName": "UI_AvatarIcon_QinCostumeWic",
        "sideIconName": "UI_AvatarIcon_Side_QinCostumeWic",
        "JPOCFCHFPAN": 2268507951203388027
    },
    {
        "skinId": 202101,
        "indexId": 1,
        "nameTextMapHash": 4237698530,
        "descTextMapHash": 2955174482,
        "itemId": 340007,
        "characterId": 10000021,
        "jsonName": "Avatar_Girl_Bow_AmborCostumeWic",
        "LMFEKDEOONK": 7122218723217693045,
        "FIOHANGCCNF": 14462486063824583299,
        "FIDFIDLDEDE": 16495873575277370679,
        "MNALJOIJMMD": 11555033508243667944,
        "DMAFAJNKPME": true,
        "quality": 4,
        "hide": true,
        "frontIconName": "UI_AvatarIcon_AmborCostumeWic",
        "sideIconName": "UI_AvatarIcon_Side_AmborCostumeWic",
        "JPOCFCHFPAN": 1673287744058013036
    },
    {
        "skinId": 204101,
        "indexId": 1,
        "nameTextMapHash": 1860400666,
        "descTextMapHash": 2912743770,
        "itemId": 340008,
        "characterId": 10000041,
        "jsonName": "Avatar_Girl_Catalyst_MonaCostumeWic",
        "LMFEKDEOONK": 15379405067054348520,
        "FIOHANGCCNF": 16287308438257703283,
        "FIDFIDLDEDE": 1127931153574195190,
        "MNALJOIJMMD": 5022057012086513913,
        "DMAFAJNKPME": true,
        "quality": 4,
        "hide": true,
        "frontIconName": "UI_AvatarIcon_MonaCostumeWic",
        "sideIconName": "UI_AvatarIcon_Side_MonaCostumeWic",
        "JPOCFCHFPAN": 5743696895040120452
    },
    {
        "skinId": 204501,
        "indexId": 1,
        "nameTextMapHash": 2412226586,
        "descTextMapHash": 3143995322,
        "itemId": 340009,
        "characterId": 10000045,
        "jsonName": "Avatar_Lady_Pole_RosariaCostumeWic",
        "LMFEKDEOONK": 12861565697458263896,
        "FIOHANGCCNF": 10539667758355398191,
        "FIDFIDLDEDE": 9648000434294861381,
        "MNALJOIJMMD": 12267662344150393563,
        "DMAFAJNKPME": true,
        "quality": 4,
        "hide": true,
        "frontIconName": "UI_AvatarIcon_RosariaCostumeWic",
        "sideIconName": "UI_AvatarIcon_Side_RosariaCostumeWic",
        "JPOCFCHFPAN": 2832692351080435349
    },
    {
        "skinId": 201601,
        "indexId": 1,
        "nameTextMapHash": 1332852170,
        "descTextMapHash": 3295060426,
        "itemId": 340004,
        "characterId": 10000016,
        "jsonName": "Avatar_Male_Claymore_DilucCostumeFlamme",
        "LMFEKDEOONK": 10368416818400608368,
        "FIOHANGCCNF": 15335225919554737858,
        "FIDFIDLDEDE": 7202002721915920244,
        "gachaImageNameHash": 17146454811973008912,
        "MNALJOIJMMD": 13676438560609835669,
        "AKEKAAMLHPM": 9590652495663153053,
        "INAPKEEHGLM": 4585718866811975168,
        "quality": 5,
        "frontIconName": "UI_AvatarIcon_DilucCostumeFlamme",
        "sideIconName": "UI_AvatarIcon_Side_DilucCostumeFlamme",
        "JPOCFCHFPAN": 3029142693095236341
    },
    {
        "skinId": 203101,
        "indexId": 1,
        "nameTextMapHash": 3162794298,
        "descTextMapHash": 2089933442,
        "itemId": 340005,
        "characterId": 10000031,
        "jsonName": "Avatar_Girl_Bow_FischlCostumeHighness",
        "LMFEKDEOONK": 13534430752549234096,
        "FIOHANGCCNF": 1058632974177999890,
        "FIDFIDLDEDE": 16733412713662534099,
        "gachaImageNameHash": 16874910532900252125,
        "MNALJOIJMMD": 1849563772142813400,
        "AKEKAAMLHPM": 9561591276388174665,
        "INAPKEEHGLM": 7514891772841964710,
        "quality": 4,
        "frontIconName": "UI_AvatarIcon_FischlCostumeHighness",
        "sideIconName": "UI_AvatarIcon_Side_FischlCostumeHighness",
        "JPOCFCHFPAN": 16903652226668881157
    },
    {
        "skinId": 200201,
        "indexId": 1,
        "nameTextMapHash": 2768521498,
        "descTextMapHash": 2663678610,
        "itemId": 340010,
        "characterId": 10000002,
        "jsonName": "Avatar_Girl_Sword_AyakaCostumeFruhling",
        "LMFEKDEOONK": 11012300754669182976,
        "FIOHANGCCNF": 10678187531089930334,
        "FIDFIDLDEDE": 17569223125650117623,
        "gachaImageNameHash": 16603455789725430199,
        "MNALJOIJMMD": 8511293476587773248,
        "AKEKAAMLHPM": 17673295221370888477,
        "INAPKEEHGLM": 430291944493067811,
        "quality": 4,
        "frontIconName": "UI_AvatarIcon_AyakaCostumeFruhling",
        "sideIconName": "UI_AvatarIcon_Side_AyakaCostumeFruhling",
        "JPOCFCHFPAN": 17153758638107736936
    },
    {
        "skinId": 200601,
        "indexId": 1,
        "nameTextMapHash": 2255412906,
        "descTextMapHash": 2734308554,
        "itemId": 340011,
        "characterId": 10000006,
        "jsonName": "Avatar_Lady_Catalyst_LisaCostumeStudentin",
        "LMFEKDEOONK": 12600550299813159973,
        "FIOHANGCCNF": 5893029251442558127,
        "FIDFIDLDEDE": 5639347602417793683,
        "gachaImageNameHash": 5920923966167288567,
        "MNALJOIJMMD": 9138671107307150542,
        "AKEKAAMLHPM": 3844565694031600615,
        "INAPKEEHGLM": 8887732179020530164,
        "quality": 4,
        "frontIconName": "UI_AvatarIcon_LisaCostumeStudentin",
        "sideIconName": "UI_AvatarIcon_Side_LisaCostumeStudentin",
        "JPOCFCHFPAN": 3666831924373171292
    },
    {
        "skinId": 200200,
        "nameTextMapHash": 171482850,
        "descTextMapHash": 2373183578,
        "characterId": 10000002,
        "jsonName": "",
        "isDefault": true,
        "frontIconName": "",
        "sideIconName": ""
    },
    {
        "skinId": 200300,
        "nameTextMapHash": 2431528538,
        "descTextMapHash": 248153650,
        "characterId": 10000003,
        "jsonName": "",
        "isDefault": true,
        "frontIconName": "",
        "sideIconName": "",
        "OELCGCPMFKJ": true
    },
    {
        "skinId": 200500,
        "nameTextMapHash": 1648736450,
        "descTextMapHash": 2814665554,
        "characterId": 10000005,
        "jsonName": "",
        "isDefault": true,
        "frontIconName": "",
        "sideIconName": ""
    },
    {
        "skinId": 200600,
        "nameTextMapHash": 672166154,
        "descTextMapHash": 3946345210,
        "characterId": 10000006,
        "jsonName": "",
        "isDefault": true,
        "frontIconName": "",
        "sideIconName": ""
    },
    {
        "skinId": 200700,
        "nameTextMapHash": 3561662730,
        "descTextMapHash": 2020994066,
        "characterId": 10000007,
        "jsonName": "",
        "isDefault": true,
        "frontIconName": "",
        "sideIconName": ""
    },
    {
        "skinId": 201400,
        "nameTextMapHash": 2895548298,
        "descTextMapHash": 3092975850,
        "characterId": 10000014,
        "jsonName": "",
        "isDefault": true,
        "frontIconName": "",
        "sideIconName": ""
    },
    {
        "skinId": 201500,
        "nameTextMapHash": 4036813530,
        "descTextMapHash": 1523967378,
        "characterId": 10000015,
        "jsonName": "",
        "isDefault": true,
        "frontIconName": "",
        "sideIconName": ""
    },
    {
        "skinId": 201600,
        "nameTextMapHash": 674973162,
        "descTextMapHash": 2401924570,
        "characterId": 10000016,
        "jsonName": "",
        "isDefault": true,
        "frontIconName": "",
        "sideIconName": ""
    },
    {
        "skinId": 202000,
        "nameTextMapHash": 1677296490,
        "descTextMapHash": 2955915298,
        "characterId": 10000020,
        "jsonName": "",
        "isDefault": true,
        "frontIconName": "",
        "sideIconName": ""
    },
    {
        "skinId": 202100,
        "nameTextMapHash": 690774682,
        "descTextMapHash": 2978334658,
        "characterId": 10000021,
        "jsonName": "",
        "isDefault": true,
        "frontIconName": "",
        "sideIconName": "",
        "OELCGCPMFKJ": true
    },
    {
        "skinId": 202200,
        "nameTextMapHash": 3806453578,
        "descTextMapHash": 3977341762,
        "characterId": 10000022,
        "jsonName": "",
        "isDefault": true,
        "frontIconName": "",
        "sideIconName": ""
    },
    {
        "skinId": 202300,
        "nameTextMapHash": 2926593050,
        "descTextMapHash": 2478839258,
        "characterId": 10000023,
        "jsonName": "",
        "isDefault": true,
        "frontIconName": "",
        "sideIconName": ""
    },
    {
        "skinId": 202400,
        "nameTextMapHash": 2091122082,
        "descTextMapHash": 1844332810,
        "characterId": 10000024,
        "jsonName": "",
        "isDefault": true,
        "frontIconName": "",
        "sideIconName": ""
    },
    {
        "skinId": 202500,
        "nameTextMapHash": 3118674250,
        "descTextMapHash": 1606071354,
        "characterId": 10000025,
        "jsonName": "",
        "isDefault": true,
        "frontIconName": "",
        "sideIconName": ""
    },
    {
        "skinId": 202600,
        "nameTextMapHash": 2696933402,
        "descTextMapHash": 3291997178,
        "characterId": 10000026,
        "jsonName": "",
        "isDefault": true,
        "frontIconName": "",
        "sideIconName": ""
    },
    {
        "skinId": 202700,
        "nameTextMapHash": 116451794,
        "descTextMapHash": 3980318498,
        "characterId": 10000027,
        "jsonName": "",
        "isDefault": true,
        "frontIconName": "",
        "sideIconName": ""
    },
    {
        "skinId": 202900,
        "nameTextMapHash": 1023505626,
        "descTextMapHash": 3488214794,
        "characterId": 10000029,
        "jsonName": "",
        "isDefault": true,
        "frontIconName": "",
        "sideIconName": ""
    },
    {
        "skinId": 203000,
        "nameTextMapHash": 41327378,
        "descTextMapHash": 2640185922,
        "characterId": 10000030,
        "jsonName": "",
        "isDefault": true,
        "frontIconName": "",
        "sideIconName": ""
    },
    {
        "skinId": 203100,
        "nameTextMapHash": 2969091354,
        "descTextMapHash": 4134576130,
        "characterId": 10000031,
        "jsonName": "",
        "isDefault": true,
        "frontIconName": "",
        "sideIconName": ""
    },
    {
        "skinId": 203200,
        "nameTextMapHash": 2359403186,
        "descTextMapHash": 3111188850,
        "characterId": 10000032,
        "jsonName": "",
        "isDefault": true,
        "frontIconName": "",
        "sideIconName": ""
    },
    {
        "skinId": 203300,
        "nameTextMapHash": 369350914,
        "descTextMapHash": 1165773426,
        "characterId": 10000033,
        "jsonName": "",
        "isDefault": true,
        "frontIconName": "",
        "sideIconName": ""
    },
    {
        "skinId": 203400,
        "nameTextMapHash": 1660794338,
        "descTextMapHash": 102807738,
        "characterId": 10000034,
        "jsonName": "",
        "isDefault": true,
        "frontIconName": "",
        "sideIconName": ""
    },
    {
        "skinId": 203500,
        "nameTextMapHash": 2620016810,
        "descTextMapHash": 4056261530,
        "characterId": 10000035,
        "jsonName": "",
        "isDefault": true,
        "frontIconName": "",
        "sideIconName": ""
    },
    {
        "skinId": 203600,
        "nameTextMapHash": 1142485354,
        "descTextMapHash": 3971237746,
        "characterId": 10000036,
        "jsonName": "",
        "isDefault": true,
        "frontIconName": "",
        "sideIconName": ""
    },
    {
        "skinId": 203700,
        "nameTextMapHash": 4131676042,
        "descTextMapHash": 1209631242,
        "characterId": 10000037,
        "jsonName": "",
        "isDefault": true,
        "frontIconName": "",
        "sideIconName": ""
    },
    {
        "skinId": 203800,
        "nameTextMapHash": 3397577098,
        "descTextMapHash": 310650770,
        "characterId": 10000038,
        "jsonName": "",
        "isDefault": true,
        "frontIconName": "",
        "sideIconName": ""
    },
    {
        "skinId": 203900,
        "nameTextMapHash": 2364432618,
        "descTextMapHash": 670221618,
        "characterId": 10000039,
        "jsonName": "",
        "isDefault": true,
        "frontIconName": "",
        "sideIconName": ""
    },
    {
        "skinId": 204100,
        "nameTextMapHash": 4029369362,
        "descTextMapHash": 871545986,
        "characterId": 10000041,
        "jsonName": "",
        "isDefault": true,
        "frontIconName": "",
        "sideIconName": "",
        "OELCGCPMFKJ": true
    },
    {
        "skinId": 204200,
        "nameTextMapHash": 3714413314,
        "descTextMapHash": 1992333442,
        "characterId": 10000042,
        "jsonName": "",
        "isDefault": true,
        "frontIconName": "",
        "sideIconName": ""
    },
    {
        "skinId": 204300,
        "nameTextMapHash": 3529210914,
        "descTextMapHash": 4118239546,
        "characterId": 10000043,
        "jsonName": "",
        "isDefault": true,
        "frontIconName": "",
        "sideIconName": ""
    },
    {
        "skinId": 204400,
        "nameTextMapHash": 2768155290,
        "descTextMapHash": 678376738,
        "characterId": 10000044,
        "jsonName": "",
        "isDefault": true,
        "frontIconName": "",
        "sideIconName": ""
    },
    {
        "skinId": 204500,
        "nameTextMapHash": 772899890,
        "descTextMapHash": 4067539010,
        "characterId": 10000045,
        "jsonName": "",
        "isDefault": true,
        "frontIconName": "",
        "sideIconName": "",
        "OELCGCPMFKJ": true
    },
    {
        "skinId": 204600,
        "nameTextMapHash": 626284674,
        "descTextMapHash": 1186495122,
        "characterId": 10000046,
        "jsonName": "",
        "isDefault": true,
        "frontIconName": "",
        "sideIconName": ""
    },
    {
        "skinId": 204700,
        "nameTextMapHash": 3355624658,
        "descTextMapHash": 973274738,
        "characterId": 10000047,
        "jsonName": "",
        "isDefault": true,
        "frontIconName": "",
        "sideIconName": ""
    },
    {
        "skinId": 204800,
        "nameTextMapHash": 258962178,
        "descTextMapHash": 3070176786,
        "characterId": 10000048,
        "jsonName": "",
        "isDefault": true,
        "frontIconName": "",
        "sideIconName": ""
    },
    {
        "skinId": 204900,
        "nameTextMapHash": 2353136394,
        "descTextMapHash": 984351202,
        "characterId": 10000049,
        "jsonName": "",
        "isDefault": true,
        "frontIconName": "",
        "sideIconName": ""
    },
    {
        "skinId": 205000,
        "nameTextMapHash": 2040879098,
        "descTextMapHash": 1458439730,
        "characterId": 10000050,
        "jsonName": "",
        "isDefault": true,
        "frontIconName": "",
        "sideIconName": ""
    },
    {
        "skinId": 205100,
        "nameTextMapHash": 301314714,
        "descTextMapHash": 1419139450,
        "characterId": 10000051,
        "jsonName": "",
        "isDefault": true,
        "frontIconName": "",
        "sideIconName": ""
    },
    {
        "skinId": 205200,
        "nameTextMapHash": 2377779762,
        "descTextMapHash": 3412149506,
        "characterId": 10000052,
        "jsonName": "",
        "isDefault": true,
        "frontIconName": "",
        "sideIconName": ""
    },
    {
        "skinId": 205300,
        "nameTextMapHash": 4048306346,
        "descTextMapHash": 2144597778,
        "characterId": 10000053,
        "jsonName": "",
        "isDefault": true,
        "frontIconName": "",
        "sideIconName": ""
    },
    {
        "skinId": 205400,
        "nameTextMapHash": 2786415650,
        "descTextMapHash": 3173668642,
        "characterId": 10000054,
        "jsonName": "",
        "isDefault": true,
        "frontIconName": "",
        "sideIconName": ""
    },
    {
        "skinId": 205500,
        "nameTextMapHash": 3561880386,
        "descTextMapHash": 990939858,
        "characterId": 10000055,
        "jsonName": "",
        "isDefault": true,
        "frontIconName": "",
        "sideIconName": ""
    },
    {
        "skinId": 205600,
        "nameTextMapHash": 382710810,
        "descTextMapHash": 1024066610,
        "characterId": 10000056,
        "jsonName": "",
        "isDefault": true,
        "frontIconName": "",
        "sideIconName": ""
    },
    {
        "skinId": 205700,
        "nameTextMapHash": 2006093914,
        "descTextMapHash": 4146650074,
        "characterId": 10000057,
        "jsonName": "",
        "isDefault": true,
        "frontIconName": "",
        "sideIconName": ""
    },
    {
        "skinId": 205800,
        "nameTextMapHash": 1295363218,
        "descTextMapHash": 3314678434,
        "characterId": 10000058,
        "jsonName": "",
        "isDefault": true,
        "frontIconName": "",
        "sideIconName": ""
    },
    {
        "skinId": 205900,
        "nameTextMapHash": 4029103562,
        "descTextMapHash": 3182680786,
        "characterId": 10000059,
        "jsonName": "",
        "isDefault": true,
        "frontIconName": "",
        "sideIconName": ""
    },
    {
        "skinId": 206000,
        "nameTextMapHash": 2196179842,
        "descTextMapHash": 3407589218,
        "characterId": 10000060,
        "jsonName": "",
        "isDefault": true,
        "frontIconName": "",
        "sideIconName": ""
    },
    {
        "skinId": 206200,
        "nameTextMapHash": 3429415730,
        "descTextMapHash": 271842858,
        "characterId": 10000062,
        "jsonName": "",
        "isDefault": true,
        "frontIconName": "",
        "sideIconName": ""
    },
    {
        "skinId": 206300,
        "nameTextMapHash": 3671207274,
        "descTextMapHash": 3625334322,
        "characterId": 10000063,
        "jsonName": "",
        "isDefault": true,
        "frontIconName": "",
        "sideIconName": ""
    },
    {
        "skinId": 206400,
        "nameTextMapHash": 2433262890,
        "descTextMapHash": 1261799770,
        "characterId": 10000064,
        "jsonName": "",
        "isDefault": true,
        "frontIconName": "",
        "sideIconName": ""
    },
    {
        "skinId": 206500,
        "nameTextMapHash": 3245276834,
        "descTextMapHash": 3036913898,
        "characterId": 10000065,
        "jsonName": "",
        "isDefault": true,
        "frontIconName": "",
        "sideIconName": ""
    },
    {
        "skinId": 206600,
        "nameTextMapHash": 3109032026,
        "descTextMapHash": 3093997674,
        "characterId": 10000066,
        "jsonName": "",
        "isDefault": true,
        "frontIconName": "",
        "sideIconName": ""
    },
    {
        "skinId": 206700,
        "nameTextMapHash": 3135223450,
        "descTextMapHash": 2308150714,
        "characterId": 10000067,
        "jsonName": "",
        "isDefault": true,
        "frontIconName": "",
        "sideIconName": ""
    },
    {
        "skinId": 206800,
        "nameTextMapHash": 3617396594,
        "descTextMapHash": 1616648506,
        "characterId": 10000068,
        "jsonName": "",
        "isDefault": true,
        "frontIconName": "",
        "sideIconName": ""
    },
    {
        "skinId": 206900,
        "nameTextMapHash": 1106979266,
        "descTextMapHash": 510932922,
        "characterId": 10000069,
        "jsonName": "",
        "isDefault": true,
        "frontIconName": "",
        "sideIconName": ""
    },
    {
        "skinId": 207000,
        "nameTextMapHash": 3647756106,
        "descTextMapHash": 1078022994,
        "characterId": 10000070,
        "jsonName": "",
        "isDefault": true,
        "frontIconName": "",
        "sideIconName": ""
    },
    {
        "skinId": 207100,
        "nameTextMapHash": 3913661394,
        "descTextMapHash": 1864424082,
        "characterId": 10000071,
        "jsonName": "",
        "isDefault": true,
        "frontIconName": "",
        "sideIconName": ""
    },
    {
        "skinId": 207200,
        "nameTextMapHash": 2665843154,
        "descTextMapHash": 2067286834,
        "characterId": 10000072,
        "jsonName": "",
        "isDefault": true,
        "frontIconName": "",
        "sideIconName": ""
    },
    {
        "skinId": 207300,
        "nameTextMapHash": 2005565242,
        "descTextMapHash": 2151511386,
        "characterId": 10000073,
        "jsonName": "",
        "isDefault": true,
        "frontIconName": "",
        "sideIconName": ""
    },
    {
        "skinId": 207400,
        "nameTextMapHash": 1128331378,
        "descTextMapHash": 3853124810,
        "characterId": 10000074,
        "jsonName": "",
        "isDefault": true,
        "frontIconName": "",
        "sideIconName": ""
    },
    {
        "skinId": 207500,
        "nameTextMapHash": 4005813530,
        "descTextMapHash": 3246746458,
        "characterId": 10000075,
        "jsonName": "",
        "isDefault": true,
        "frontIconName": "",
        "sideIconName": ""
    },
    {
        "skinId": 207600,
        "nameTextMapHash": 1487058818,
        "descTextMapHash": 3487496106,
        "characterId": 10000076,
        "jsonName": "",
        "isDefault": true,
        "frontIconName": "",
        "sideIconName": ""
    },
    {
        "skinId": 207700,
        "nameTextMapHash": 1664916426,
        "descTextMapHash": 3911845442,
        "characterId": 10000077,
        "jsonName": "",
        "isDefault": true,
        "frontIconName": "",
        "sideIconName": ""
    },
    {
        "skinId": 207800,
        "nameTextMapHash": 3349227426,
        "descTextMapHash": 39198106,
        "characterId": 10000078,
        "jsonName": "",
        "isDefault": true,
        "frontIconName": "",
        "sideIconName": ""
    },
    {
        "skinId": 207900,
        "nameTextMapHash": 4041199642,
        "descTextMapHash": 140684002,
        "characterId": 10000079,
        "jsonName": "",
        "isDefault": true,
        "frontIconName": "",
        "sideIconName": ""
    },
    {
        "skinId": 208000,
        "nameTextMapHash": 423812362,
        "descTextMapHash": 3777257866,
        "characterId": 10000080,
        "jsonName": "",
        "isDefault": true,
        "frontIconName": "",
        "sideIconName": ""
    }
]