[
    {
        "id": 101,
        "NFANLMJDCNL": "GCG_ELEMENT_CRYO",
        "EADDDDPOOJE": "GCG_ELEMENT_PYRO",
        "ONEJALHEENC": 101
    },
    {
        "id": 102,
        "NFANLMJDCNL": "GCG_ELEMENT_HYDRO",
        "EADDDDPOOJE": "GCG_ELEMENT_PYRO",
        "ONEJALHEENC": 102
    },
    {
        "id": 103,
        "NFANLMJDCNL": "GCG_ELEMENT_ELECTRO",
        "EADDDDPOOJE": "GCG_ELEMENT_PYRO",
        "ONEJALHEENC": 103
    },
    {
        "id": 104,
        "NFANLMJDCNL": "GCG_ELEMENT_ELECTRO",
        "EADDDDPOOJE": "GCG_ELEMENT_CRYO",
        "ONEJALHEENC": 104
    },
    {
        "id": 105,
        "NFANLMJDCNL": "GCG_ELEMENT_ELECTRO",
        "EADDDDPOOJE": "GCG_ELEMENT_HYDRO",
        "ONEJALHEENC": 105
    },
    {
        "id": 106,
        "NFANLMJDCNL": "GCG_ELEMENT_CRYO",
        "EADDDDPOOJE": "GCG_ELEMENT_HYDRO",
        "ONEJALHEENC": 106
    },
    {
        "id": 107,
        "NFANLMJDCNL": "GCG_ELEMENT_CRYO",
        "EADDDDPOOJE": "GCG_ELEMENT_ANEMO",
        "ONEJALHEENC": 107
    },
    {
        "id": 108,
        "NFANLMJDCNL": "GCG_ELEMENT_HYDRO",
        "EADDDDPOOJE": "GCG_ELEMENT_ANEMO",
        "ONEJALHEENC": 108
    },
    {
        "id": 109,
        "NFANLMJDCNL": "GCG_ELEMENT_PYRO",
        "EADDDDPOOJE": "GCG_ELEMENT_ANEMO",
        "ONEJALHEENC": 109
    },
    {
        "id": 110,
        "NFANLMJDCNL": "GCG_ELEMENT_ELECTRO",
        "EADDDDPOOJE": "GCG_ELEMENT_ANEMO",
        "ONEJALHEENC": 110
    },
    {
        "id": 111,
        "NFANLMJDCNL": "GCG_ELEMENT_CRYO",
        "EADDDDPOOJE": "GCG_ELEMENT_GEO",
        "ONEJALHEENC": 111
    },
    {
        "id": 112,
        "NFANLMJDCNL": "GCG_ELEMENT_HYDRO",
        "EADDDDPOOJE": "GCG_ELEMENT_GEO",
        "ONEJALHEENC": 112
    },
    {
        "id": 113,
        "NFANLMJDCNL": "GCG_ELEMENT_PYRO",
        "EADDDDPOOJE": "GCG_ELEMENT_GEO",
        "ONEJALHEENC": 113
    },
    {
        "id": 114,
        "NFANLMJDCNL": "GCG_ELEMENT_ELECTRO",
        "EADDDDPOOJE": "GCG_ELEMENT_GEO",
        "ONEJALHEENC": 114
    },
    {
        "id": 115,
        "NFANLMJDCNL": "GCG_ELEMENT_PYRO",
        "EADDDDPOOJE": "GCG_ELEMENT_DENDRO",
        "ONEJALHEENC": 115
    },
    {
        "id": 116,
        "NFANLMJDCNL": "GCG_ELEMENT_HYDRO",
        "EADDDDPOOJE": "GCG_ELEMENT_DENDRO",
        "ONEJALHEENC": 116
    },
    {
        "id": 117,
        "NFANLMJDCNL": "GCG_ELEMENT_ELECTRO",
        "EADDDDPOOJE": "GCG_ELEMENT_DENDRO",
        "ONEJALHEENC": 117
    }
]